<svg width="16" height="16" viewBox="0 0 16 16" fill="none" xmlns="http://www.w3.org/2000/svg">
<path fill-rule="evenodd" clip-rule="evenodd" d="M11.4343 11.4343C11.1219 11.7467 11.1219 12.2533 11.4343 12.5657L14.6343 15.7657C14.9467 16.0781 15.4533 16.0781 15.7657 15.7657C16.0781 15.4533 16.0781 14.9467 15.7657 14.6343L12.5657 11.4343C12.2533 11.1219 11.7467 11.1219 11.4343 11.4343Z" fill="black"/>
<path fill-rule="evenodd" clip-rule="evenodd" d="M12.8 7.2C12.8 10.2928 10.2928 12.8 7.2 12.8C4.10721 12.8 1.6 10.2928 1.6 7.2C1.6 4.10721 4.10721 1.6 7.2 1.6C10.2928 1.6 12.8 4.10721 12.8 7.2ZM14.4 7.2C14.4 11.1765 11.1765 14.4 7.2 14.4C3.22355 14.4 0 11.1765 0 7.2C0 3.22355 3.22355 1.73816e-07 7.2 0C11.1765 -1.73816e-07 14.4 3.22355 14.4 7.2Z" fill="black"/>
</svg>
